{
    "active_assignments": [
    ],
    "inactive_assignments": [
        "000_welcome",
        "001_mking_and_mving",
        "002_options",
        "003_remotessh",
        "004_paths_more_traveled",
        "005_vimtro",
        "006_earlyscripts"
    ]
}
